{
    "chromeDriverPath": "C:/Program Files (x86)/Texas Instruments5825AT/PurePath Console 3/source/chromedriver",
    "appToTest": "TAS5825M",
    "componentsToTest": [],
    "commonAudioInput": "E:/PPC3_e2e/audio_files/input_audio/sinewave.wav",
    "TAS5825M": {
        "configs": [],
        "audioModes": {}
    }
}